SELECT * FROM (SELECT u.id as id, u.username, u.password, p.name as pname, p.mobile, p.studentcode, u.admin, m.name as mname, g.name as gname, dp.name as dpname from user as u JOIN person as p ON u.person_id = p.id JOIN major as m ON p.major_id = m.id JOIN _group as g ON p.group_id = g.id JOIN department as dp ON m.department_id = dp.id)as now WHERE now.id = ?

SELECT u.id, u.username, u.password, p.name as pname, p.mobile, p.studentcode, u.admin, m.name as mname, g.name as gname, dp.name as dpname from user as u JOIN person as p ON u.person_id = p.id JOIN major as m ON p.major_id = m.id JOIN _group as g ON p.group_id = g.id JOIN department as dp ON m.department_id = dp.id

<!-- <table class='table table-bordered table-hover mt-3 text-center'>
                    <thead>
                        <tr align="center">
                            <th> ชื่อ </th>
                            <th> รหัสนักศึกษา </th>
                            <th> เบอร์มือถือ </th>
                            <th> สาขา </th>
                            <th> คณะ </th>
                            <th> ปีการศึกษา </th>
                            <th> Username </th>
                            <th> Password </th>
                            <th colspan="2"> Action </th>
                        </tr>
                    </thead>
                    <tbody>
                        <% if(data) {%>
                        <tr>
                            <td> <%= data[0].pname %></td>
                            <td> <%= data[0].studentcode%> </td>
                            <td> <%= data[0].mobile %></td>
                            <td> <%= data[0].mname %></td>
                            <td> <%= data[0].dpname %></td>
                            <td> <%= data[0].gname %></td>
                            <td> <%= data[0].username %></td>
                            <td> <%= data[0].password %></td>
                            <td>
                                <a href="/user/update/<%= data[0].id %>" class='btn btn-info'> Update </a>
                            </td>
                            <td>
                                <a href="/user/checkdel/<%= data[0].id %>" class='btn btn-danger'> Delete</a>
                            </td>
                        </tr>
                        <%}%>
                    </tbody>
                </table> -->